<svg xmlns="http://www.w3.org/2000/svg" xmlns:xlink="http://www.w3.org/1999/xlink" width="24" height="24" viewBox="0 0 24 24" version="1.1">
    <defs>
        <ellipse id="coin" rx="12" ry="8" fill="#ff0" stroke="#000"/>
    </defs>

    <use xlink:href="#coin" x="12" y="16"/>
    <use xlink:href="#coin" x="12" y="12"/>
    <use xlink:href="#coin" x="12" y="8"/>
</svg>